{
  "formatVersion": 1,
  "database": {
    "version": 8,
    "identityHash": "120708f4dd65f597a8db866a382b02ad",
    "entities": [
      {
        "tableName": "Activity",
        "createSql": "CREATE TABLE IF NOT EXISTS `${TABLE_NAME}` (`uid` INTEGER PRIMARY KEY AUTOINCREMENT NOT NULL, `name` TEXT NOT NULL, `goal_id` INTEGER NOT NULL, `points` INTEGER NOT NULL, `is_old` INTEGER NOT NULL, FOREIGN KEY(`goal_id`) REFERENCES `Goal`(`uid`) ON UPDATE NO ACTION ON DELETE CASCADE )",
        "fields": [
          {
            "fieldPath": "uid",
            "columnName": "uid",
            "affinity": "INTEGER",
            "notNull": true
          },
          {
            "fieldPath": "name",
            "columnName": "name",
            "affinity": "TEXT",
            "notNull": true
          },
          {
            "fieldPath": "goalId",
            "columnName": "goal_id",
            "affinity": "INTEGER",
            "notNull": true
          },
          {
            "fieldPath": "points",
            "columnName": "points",
            "affinity": "INTEGER",
            "notNull": true
          },
          {
            "fieldPath": "isOld",
            "columnName": "is_old",
            "affinity": "INTEGER",
            "notNull": true
          }
        ],
        "primaryKey": {
          "columnNames": [
            "uid"
          ],
          "autoGenerate": true
        },
        "indices": [
          {
            "name": "index_Activity_goal_id",
            "unique": false,
            "columnNames": [
              "goal_id"
            ],
            "createSql": "CREATE INDEX IF NOT EXISTS `index_Activity_goal_id` ON `${TABLE_NAME}` (`goal_id`)"
          }
        ],
        "foreignKeys": [
          {
            "table": "Goal",
            "onDelete": "CASCADE",
            "onUpdate": "NO ACTION",
            "columns": [
              "goal_id"
            ],
            "referencedColumns": [
              "uid"
            ]
          }
        ]
      },
      {
        "tableName": "ActivityEntry",
        "createSql": "CREATE TABLE IF NOT EXISTS `${TABLE_NAME}` (`uid` INTEGER PRIMARY KEY AUTOINCREMENT NOT NULL, `activity_id` INTEGER NOT NULL, `goal_id` INTEGER NOT NULL, `timestamp` INTEGER NOT NULL, FOREIGN KEY(`activity_id`) REFERENCES `Activity`(`uid`) ON UPDATE NO ACTION ON DELETE CASCADE )",
        "fields": [
          {
            "fieldPath": "uid",
            "columnName": "uid",
            "affinity": "INTEGER",
            "notNull": true
          },
          {
            "fieldPath": "activityId",
            "columnName": "activity_id",
            "affinity": "INTEGER",
            "notNull": true
          },
          {
            "fieldPath": "goalId",
            "columnName": "goal_id",
            "affinity": "INTEGER",
            "notNull": true
          },
          {
            "fieldPath": "timestamp",
            "columnName": "timestamp",
            "affinity": "INTEGER",
            "notNull": true
          }
        ],
        "primaryKey": {
          "columnNames": [
            "uid"
          ],
          "autoGenerate": true
        },
        "indices": [
          {
            "name": "index_ActivityEntry_activity_id",
            "unique": false,
            "columnNames": [
              "activity_id"
            ],
            "createSql": "CREATE INDEX IF NOT EXISTS `index_ActivityEntry_activity_id` ON `${TABLE_NAME}` (`activity_id`)"
          }
        ],
        "foreignKeys": [
          {
            "table": "Activity",
            "onDelete": "CASCADE",
            "onUpdate": "NO ACTION",
            "columns": [
              "activity_id"
            ],
            "referencedColumns": [
              "uid"
            ]
          }
        ]
      },
      {
        "tableName": "Goal",
        "createSql": "CREATE TABLE IF NOT EXISTS `${TABLE_NAME}` (`uid` INTEGER PRIMARY KEY AUTOINCREMENT NOT NULL, `name` TEXT NOT NULL, `color` INTEGER NOT NULL, `points` INTEGER NOT NULL, `symbol` INTEGER NOT NULL, `order_number` INTEGER NOT NULL, `is_active` INTEGER NOT NULL, `is_old` INTEGER NOT NULL)",
        "fields": [
          {
            "fieldPath": "uid",
            "columnName": "uid",
            "affinity": "INTEGER",
            "notNull": true
          },
          {
            "fieldPath": "name",
            "columnName": "name",
            "affinity": "TEXT",
            "notNull": true
          },
          {
            "fieldPath": "color",
            "columnName": "color",
            "affinity": "INTEGER",
            "notNull": true
          },
          {
            "fieldPath": "points",
            "columnName": "points",
            "affinity": "INTEGER",
            "notNull": true
          },
          {
            "fieldPath": "symbol",
            "columnName": "symbol",
            "affinity": "INTEGER",
            "notNull": true
          },
          {
            "fieldPath": "orderNumber",
            "columnName": "order_number",
            "affinity": "INTEGER",
            "notNull": true
          },
          {
            "fieldPath": "isActive",
            "columnName": "is_active",
            "affinity": "INTEGER",
            "notNull": true
          },
          {
            "fieldPath": "isOld",
            "columnName": "is_old",
            "affinity": "INTEGER",
            "notNull": true
          }
        ],
        "primaryKey": {
          "columnNames": [
            "uid"
          ],
          "autoGenerate": true
        },
        "indices": [],
        "foreignKeys": []
      },
      {
        "tableName": "Challenge",
        "createSql": "CREATE TABLE IF NOT EXISTS `${TABLE_NAME}` (`uid` INTEGER PRIMARY KEY AUTOINCREMENT NOT NULL, `title` TEXT NOT NULL, `deadline` INTEGER NOT NULL, `challenge_type` INTEGER NOT NULL, `value_type` INTEGER NOT NULL, `desired_value` REAL NOT NULL, `current_value` REAL NOT NULL, `id` INTEGER NOT NULL, `symbol` INTEGER NOT NULL, `status` INTEGER NOT NULL, `start_date` INTEGER NOT NULL)",
        "fields": [
          {
            "fieldPath": "uid",
            "columnName": "uid",
            "affinity": "INTEGER",
            "notNull": true
          },
          {
            "fieldPath": "title",
            "columnName": "title",
            "affinity": "TEXT",
            "notNull": true
          },
          {
            "fieldPath": "deadline",
            "columnName": "deadline",
            "affinity": "INTEGER",
            "notNull": true
          },
          {
            "fieldPath": "challengeType",
            "columnName": "challenge_type",
            "affinity": "INTEGER",
            "notNull": true
          },
          {
            "fieldPath": "valueType",
            "columnName": "value_type",
            "affinity": "INTEGER",
            "notNull": true
          },
          {
            "fieldPath": "desiredValue",
            "columnName": "desired_value",
            "affinity": "REAL",
            "notNull": true
          },
          {
            "fieldPath": "currentValue",
            "columnName": "current_value",
            "affinity": "REAL",
            "notNull": true
          },
          {
            "fieldPath": "id",
            "columnName": "id",
            "affinity": "INTEGER",
            "notNull": true
          },
          {
            "fieldPath": "symbol",
            "columnName": "symbol",
            "affinity": "INTEGER",
            "notNull": true
          },
          {
            "fieldPath": "status",
            "columnName": "status",
            "affinity": "INTEGER",
            "notNull": true
          },
          {
            "fieldPath": "startDate",
            "columnName": "start_date",
            "affinity": "INTEGER",
            "notNull": true
          }
        ],
        "primaryKey": {
          "columnNames": [
            "uid"
          ],
          "autoGenerate": true
        },
        "indices": [],
        "foreignKeys": []
      },
      {
        "tableName": "Scale",
        "createSql": "CREATE TABLE IF NOT EXISTS `${TABLE_NAME}` (`uid` INTEGER PRIMARY KEY AUTOINCREMENT NOT NULL, `name` TEXT NOT NULL)",
        "fields": [
          {
            "fieldPath": "uid",
            "columnName": "uid",
            "affinity": "INTEGER",
            "notNull": true
          },
          {
            "fieldPath": "name",
            "columnName": "name",
            "affinity": "TEXT",
            "notNull": true
          }
        ],
        "primaryKey": {
          "columnNames": [
            "uid"
          ],
          "autoGenerate": true
        },
        "indices": [],
        "foreignKeys": []
      },
      {
        "tableName": "ScaleEntry",
        "createSql": "CREATE TABLE IF NOT EXISTS `${TABLE_NAME}` (`uid` INTEGER PRIMARY KEY AUTOINCREMENT NOT NULL, `scale_id` INTEGER NOT NULL, `timestamp` INTEGER NOT NULL, `value` REAL NOT NULL, FOREIGN KEY(`scale_id`) REFERENCES `Scale`(`uid`) ON UPDATE NO ACTION ON DELETE CASCADE )",
        "fields": [
          {
            "fieldPath": "uid",
            "columnName": "uid",
            "affinity": "INTEGER",
            "notNull": true
          },
          {
            "fieldPath": "scaleId",
            "columnName": "scale_id",
            "affinity": "INTEGER",
            "notNull": true
          },
          {
            "fieldPath": "timestamp",
            "columnName": "timestamp",
            "affinity": "INTEGER",
            "notNull": true
          },
          {
            "fieldPath": "value",
            "columnName": "value",
            "affinity": "REAL",
            "notNull": true
          }
        ],
        "primaryKey": {
          "columnNames": [
            "uid"
          ],
          "autoGenerate": true
        },
        "indices": [
          {
            "name": "index_ScaleEntry_scale_id",
            "unique": false,
            "columnNames": [
              "scale_id"
            ],
            "createSql": "CREATE INDEX IF NOT EXISTS `index_ScaleEntry_scale_id` ON `${TABLE_NAME}` (`scale_id`)"
          }
        ],
        "foreignKeys": [
          {
            "table": "Scale",
            "onDelete": "CASCADE",
            "onUpdate": "NO ACTION",
            "columns": [
              "scale_id"
            ],
            "referencedColumns": [
              "uid"
            ]
          }
        ]
      },
      {
        "tableName": "Trophy",
        "createSql": "CREATE TABLE IF NOT EXISTS `${TABLE_NAME}` (`uid` INTEGER PRIMARY KEY AUTOINCREMENT NOT NULL, `text` TEXT NOT NULL, `type` INTEGER NOT NULL, `goal_id` INTEGER NOT NULL, `timestamp` INTEGER NOT NULL, `value` INTEGER NOT NULL, `activity_entry_id` INTEGER NOT NULL, FOREIGN KEY(`activity_entry_id`) REFERENCES `ActivityEntry`(`uid`) ON UPDATE NO ACTION ON DELETE CASCADE )",
        "fields": [
          {
            "fieldPath": "uid",
            "columnName": "uid",
            "affinity": "INTEGER",
            "notNull": true
          },
          {
            "fieldPath": "text",
            "columnName": "text",
            "affinity": "TEXT",
            "notNull": true
          },
          {
            "fieldPath": "type",
            "columnName": "type",
            "affinity": "INTEGER",
            "notNull": true
          },
          {
            "fieldPath": "goalId",
            "columnName": "goal_id",
            "affinity": "INTEGER",
            "notNull": true
          },
          {
            "fieldPath": "timestamp",
            "columnName": "timestamp",
            "affinity": "INTEGER",
            "notNull": true
          },
          {
            "fieldPath": "value",
            "columnName": "value",
            "affinity": "INTEGER",
            "notNull": true
          },
          {
            "fieldPath": "activityEntryId",
            "columnName": "activity_entry_id",
            "affinity": "INTEGER",
            "notNull": true
          }
        ],
        "primaryKey": {
          "columnNames": [
            "uid"
          ],
          "autoGenerate": true
        },
        "indices": [
          {
            "name": "index_Trophy_activity_entry_id",
            "unique": false,
            "columnNames": [
              "activity_entry_id"
            ],
            "createSql": "CREATE INDEX IF NOT EXISTS `index_Trophy_activity_entry_id` ON `${TABLE_NAME}` (`activity_entry_id`)"
          }
        ],
        "foreignKeys": [
          {
            "table": "ActivityEntry",
            "onDelete": "CASCADE",
            "onUpdate": "NO ACTION",
            "columns": [
              "activity_entry_id"
            ],
            "referencedColumns": [
              "uid"
            ]
          }
        ]
      },
      {
        "tableName": "Journal",
        "createSql": "CREATE TABLE IF NOT EXISTS `${TABLE_NAME}` (`date` TEXT NOT NULL, `note` TEXT NOT NULL, `affirmation` TEXT NOT NULL, `image_filename` TEXT NOT NULL, `mood` INTEGER NOT NULL, PRIMARY KEY(`date`))",
        "fields": [
          {
            "fieldPath": "date",
            "columnName": "date",
            "affinity": "TEXT",
            "notNull": true
          },
          {
            "fieldPath": "affirmation",
            "columnName": "note",
            "affinity": "TEXT",
            "notNull": true
          },
          {
            "fieldPath": "note",
            "columnName": "affirmation",
            "affinity": "TEXT",
            "notNull": true
          },
          {
            "fieldPath": "imageFilename",
            "columnName": "image_filename",
            "affinity": "TEXT",
            "notNull": true
          },
          {
            "fieldPath": "mood",
            "columnName": "mood",
            "affinity": "INTEGER",
            "notNull": true
          }
        ],
        "primaryKey": {
          "columnNames": [
            "date"
          ],
          "autoGenerate": false
        },
        "indices": [],
        "foreignKeys": []
      },
      {
        "tableName": "HundredPercentValue",
        "createSql": "CREATE TABLE IF NOT EXISTS `${TABLE_NAME}` (`date` TEXT NOT NULL, `points` INTEGER NOT NULL, `active_goals` TEXT NOT NULL, PRIMARY KEY(`date`))",
        "fields": [
          {
            "fieldPath": "date",
            "columnName": "date",
            "affinity": "TEXT",
            "notNull": true
          },
          {
            "fieldPath": "points",
            "columnName": "points",
            "affinity": "INTEGER",
            "notNull": true
          },
          {
            "fieldPath": "activeGoals",
            "columnName": "active_goals",
            "affinity": "TEXT",
            "notNull": true
          }
        ],
        "primaryKey": {
          "columnNames": [
            "date"
          ],
          "autoGenerate": false
        },
        "indices": [],
        "foreignKeys": []
      }
    ],
    "views": [],
    "setupQueries": [
      "CREATE TABLE IF NOT EXISTS room_master_table (id INTEGER PRIMARY KEY,identity_hash TEXT)",
      "INSERT OR REPLACE INTO room_master_table (id,identity_hash) VALUES(42, '120708f4dd65f597a8db866a382b02ad')"
    ]
  }
}